{
  "id": 1203125,
  "title": "New Block",
  "slug": null,
  "state": "public",
  "isWip": null,
  "isDraft": null,
  "entityClass": "Block",
  "icon": "fa-solid fa-cube",
  "url": "http://www.worldanvil.com/sheet/1203125/view",
  "subscribergroups": [],
  "folderId": null,
  "tags": null,
  "updateDate": null,
  "identifier": "new_block-soullink-273",
  "dataParser": "yaml",
  "textualdata": null,
  "tabulardata": null,
  "jsondata": null,
  "isShared": false,
  "isSRD": false,
  "template": null,
  "RPGSRD": {
    "id": 273,
    "title": "Mutant: Year Zero",
    "slug": null,
    "state": null,
    "isWip": null,
    "isDraft": null,
    "entityClass": "RPGSRD",
    "icon": "fa-solid fa-chess-rook-piece",
    "url": null,
    "subscribergroups": [],
    "folderId": null,
    "tags": null,
    "updateDate": null
  },
  "author": {
    "id": "42eb1d6a-021b-49b4-bbbb-f7ddf6b135a4",
    "title": "SoulLink",
    "slug": null,
    "state": null,
    "isWip": null,
    "isDraft": null,
    "entityClass": "User",
    "icon": "fa-solid fa-user",
    "url": "http://www.worldanvil.com/author/SoulLink",
    "subscribergroups": [],
    "folderId": null,
    "tags": null,
    "updateDate": null
  },
  "folder": null,
  "isEditable": true,
  "success": true
}